class Solution {
    public void sortColors(int[] nums) {
        
    for(int j=0; j<nums.length-1; j++){
            for(int i=0; i<nums.length-1; i++){
                if(nums[i]>nums[i+1]){
                    int tem = nums[i];
                    nums[i] = nums[i+1];
                    nums[i+1] = tem;
                }
            }
        }
    }
}
